{
  "project_info": {
    "project_number": "840221559757",
    "firebase_url": "https://studyplan-b6ff9.firebaseio.com",
    "project_id": "studyplan-b6ff9",
    "storage_bucket": "studyplan-b6ff9.appspot.com"
  },
  "client": [
    {
      "client_info": {
        "mobilesdk_app_id": "1:840221559757:android:365eedbaa24f98d8",
        "android_client_info": {
          "package_name": "th.ac.rmutt.comsci.studyplandemo"
        }
      },
      "oauth_client": [
        {
          "client_id": "840221559757-iqi0g4hr2f9nfmr6mpvktj1ii26va5ti.apps.googleusercontent.com",
          "client_type": 1,
          "android_info": {
            "package_name": "th.ac.rmutt.comsci.studyplandemo",
            "certificate_hash": "e37834664f909102a1db3f634a66aa6c627f9dab"
          }
        },
        {
          "client_id": "840221559757-03gaj5q6lee0sib19lp7l9on0drlaq7k.apps.googleusercontent.com",
          "client_type": 3
        }
      ],
      "api_key": [
        {
          "current_key": "AIzaSyBJMQm6TJbXpMpZltB718hxCAoeN-ZwHAE"
        }
      ],
      "services": {
        "analytics_service": {
          "status": 1
        },
        "appinvite_service": {
          "status": 2,
          "other_platform_oauth_client": [
            {
              "client_id": "840221559757-03gaj5q6lee0sib19lp7l9on0drlaq7k.apps.googleusercontent.com",
              "client_type": 3
            }
          ]
        },
        "ads_service": {
          "status": 2
        }
      }
    }
  ],
  "configuration_version": "1"
}